"V1"	"V2"	"V3"	"V4"	"V5"	"V6"	"V7"	"V8"	"V9"	"V10"	"V11"
"1"	"infectious and parasitic diseases"	"DBP"	"SBP"	"PULSE"	"CREATININE"	"GLUCOSE"	"UREA.NITROGEN"	"POTASSIUM"	"CO2.TOTAL"	"SODIUM"	"CHLORIDE"
"2"	"neoplasms"	"DBP"	"SBP"	"PULSE"	"CREATININE"	"GLUCOSE"	"UREA.NITROGEN"	"CO2.TOTAL"	"SODIUM"	"POTASSIUM"	"CHLORIDE"
"3"	"endocrine, nutritional and metabolic, immunity disorders"	"DBP"	"SBP"	"PULSE"	"GLUCOSE"	"CREATININE"	"UREA.NITROGEN"	"CO2.TOTAL"	"SODIUM"	"POTASSIUM"	"CHLORIDE"
"4"	"diseases of blood and blood-forming organs"	"DBP"	"SBP"	"PULSE"	"GLUCOSE"	"CREATININE"	"CO2.TOTAL"	"SODIUM"	"UREA.NITROGEN"	"POTASSIUM"	"CHLORIDE"
"5"	"mental disorders"	"DBP"	"SBP"	"PULSE"	"GLUCOSE"	"CREATININE"	"UREA.NITROGEN"	"CO2.TOTAL"	"POTASSIUM"	"SODIUM"	"CHLORIDE"
"6"	"diseases of nervous system"	"DBP"	"SBP"	"PULSE"	"CREATININE"	"GLUCOSE"	"WEIGHT"	"UREA.NITROGEN"	"CO2.TOTAL"	"SODIUM"	"POTASSIUM"
"7"	"diseases of sense organs"	"DBP"	"SBP"	"PULSE"	"CREATININE"	"GLUCOSE"	"UREA.NITROGEN"	"POTASSIUM"	"CO2.TOTAL"	"SODIUM"	"CHLORIDE"
"8"	"diseases of circulatory system"	"DBP"	"SBP"	"PULSE"	"CREATININE"	"GLUCOSE"	"UREA.NITROGEN"	"CO2.TOTAL"	"SODIUM"	"POTASSIUM"	"CHLORIDE"
"9"	"diseases of respiratory system"	"DBP"	"SBP"	"PULSE"	"HEMATOCRIT"	"HEMOGLOBIN"	"MEAN.CORP..HGB"	"MEAN.CORP..HGB.CONC."	"MEAN.CORP..VOLUME"	"MEAN.PLT.VOLUME"	"RED.BLOOD.CELL"
"10"	"diseases of digestive system"	"DBP"	"SBP"	"PULSE"	"CREATININE"	"GLUCOSE"	"UREA.NITROGEN"	"POTASSIUM"	"CO2.TOTAL"	"SODIUM"	"CHLORIDE"
"11"	"diseases of genitourinary system"	"DBP"	"SBP"	"PULSE"	"CREATININE"	"GLUCOSE"	"UREA.NITROGEN"	"CO2.TOTAL"	"POTASSIUM"	"SODIUM"	"CHLORIDE"
"12"	"complications of pregnancy, childbirth, and the puerperium"	"DBP"	"SBP"	"PULSE"	"CREATININE"	"GLUCOSE"	"UREA.NITROGEN"	"POTASSIUM"	"CO2.TOTAL"	"SODIUM"	"CHLORIDE"
"13"	"diseaes of the skin and subQ tissue"	"DBP"	"SBP"	"PULSE"	"CREATININE"	"GLUCOSE"	"UREA.NITROGEN"	"CO2.TOTAL"	"SODIUM"	"POTASSIUM"	"CHLORIDE"
"14"	"diseases of the musculoskeletal system and connective tissue"	"DBP"	"SBP"	"PULSE"	"CREATININE"	"GLUCOSE"	"UREA.NITROGEN"	"CO2.TOTAL"	"SODIUM"	"POTASSIUM"	"CHLORIDE"
"15"	"congenital anomalies"	"DBP"	"SBP"	"PULSE"	"WEIGHT"	"GLUCOSE"	"CREATININE"	"UREA.NITROGEN"	"CO2.TOTAL"	"SODIUM"	"POTASSIUM"
"17"	"symptoms, signs, and ill-defined conditions"	"DBP"	"SBP"	"PULSE"	"CREATININE"	"GLUCOSE"	"UREA.NITROGEN"	"CO2.TOTAL"	"SODIUM"	"POTASSIUM"	"CHLORIDE"
"18"	"injury and poisoning"	"DBP"	"SBP"	"PULSE"	"CREATININE"	"UREA.NITROGEN"	"GLUCOSE"	"CO2.TOTAL"	"SODIUM"	"POTASSIUM"	"CHLORIDE"
